<svg xmlns="http://www.w3.org/2000/svg" width="15" height="15" viewBox="0 0 15 15">
    <path fill="#E75C3A" fill-rule="nonzero" d="M6 10a4 4 0 1 0 0-8 4 4 0 0 0 0 8zm4.843-.458l3.662 3.662-1.414 1.414-3.681-3.68a6 6 0 1 1 1.433-1.395z"/>
</svg>
